2024-02-27 13:48:30 [client.py:15] [INFO] 接口地址是:http://58.218.196.216:11080/api/web/corp/v1/xugong/pending/credits/issue/query
2024-02-27 13:48:30 [client.py:16] [INFO] 接口请求方式是:post
2024-02-27 13:48:30 [client.py:18] [INFO] 接口的verify是:False
2024-02-27 13:48:30 [client.py:18] [INFO] 接口的headers是:{'X-Auth-Token': '755ce501-3a13-4da7-bfa6-e4b76ff17f47', 'X-CSRF-TOKEN': '782bbfb0-5a3f-4d8e-b57f-21cbb2959221', 'Content-Type': 'application/json;charset=UTF-8', 'X-SCF-SIGN': '4b24df686a1ab0ab28114335448279f6', 'X-SCF-TV': '1709012910754', 'X-SCF-NONCE': '6d97dfa6-9ea8-4502-b581-b7e536507854'}
2024-02-27 13:48:30 [client.py:18] [INFO] 接口的json是:{'pageCond': {'page': 1, 'pageSize': 10}, 'parameter': {'startMaturityDate': '', 'endMaturityDate': '', 'creditSearchTypeEnum': 'ISSUE_APPLY'}}
2024-02-27 13:48:31 [client.py:21] [INFO] 接口响应状态码是:200
2024-02-27 13:48:31 [client.py:22] [INFO] 接口响应信息是:{"code":"0","message":"成功","data":{"datalist":[{"fkApproveWorkflow":null,"fkCredit":"TJSM-20231127-0001-000000","fkCorpAccept":"17cb30f5-7fd4-4b64-a9ea-39ce1493b67a","corpNameAccept":"青海华实科技投资管理有限公司","fkApplySource":"6d94f346a0c9458190f32eeb87cc5ec7","corpApplySource":"天津市润福森商贸有限公司","applyAmount":700.00,"fkFinance":null,"financeName":null,"fkCorpCore":"1f49157d-b9e7-4379-8d43-b818e2393969","corpNameCore":"天津市润福森商贸有限公司","maturityDate":"2024-09-09T16:00:00.000+00:00","fkPersonApply":"847dfb3f-cd40-499a-bc5d-8fa9fb9337fa","personNameApply":"秦跃经办","applyTime":"2023-11-27T11:07:10.000+00:00","checkResult":1,"approveReason":null,"finalApproveResult":null,"finalApproveReason":null,"tradeBackgroundInfoRelatedState":null,"abstract_":"","fkCorpSource":"1f49157d-b9e7-4379-8d43-b818e2393969","corpNameApply":"天津市润福森商贸有限公司","creditTradeApplyState":null,"maturityAmount":700.00,"fkCertificate":null,"productTypeFinance":null,"fkProductFinance":null,"fkWorkflow":null,"pkCreditTradeApply":null,"dataVersion":0,"isCheckPass":true,"fkBatch":null,"pkApply":"e056df3b-96e0-49c8-beba-e220aa4f97af","flag":true,"productTypeCcbscf":"CREDIT","creditTradeApplyStateEnumList":["APPROVING","OPERATOR_APPROVING","DIRECTOR_APPROVING","SINGLE_APPROVING"],"corpNameSource":null,"maturityAmountString":"700.00","abstract":"","creditTradeApplyStateString":null,"maturityDateString":"2024-09-10","applyTimeString":"2023-11-27","tradeBackgroundInfoRelatedStateName":"未知"},{"fkApproveWorkflow":null,"fkCredit":"TJSM-20230822-0002-000000","fkCorpAccept":"17cb30f5-7fd4-4b64-a9ea-39ce1493b67a","corpNameAccept":"青海华实科技投资管理有限公司","fkApplySource":"6d94f346a0c9458190f32eeb87cc5ec7","corpApplySource":"天津市润福森商贸有限公司","applyAmount":700.00,"fkFinance":null,"financeName":null,"fkCorpCore":"1f49157d-b9e7-4379-8d43-b818e2393969","corpNameCore":"天津市润福森商贸有限公司","maturityDate":"2024-09-09T16:00:00.000+00:00","fkPersonApply":"847dfb3f-cd40-499a-bc5d-8fa9fb9337fa","personNameApply":"秦跃经办","applyTime":"2023-08-22T10:56:53.000+00:00","checkResult":1,"approveReason":null,"finalApproveResult":null,"finalApproveReason":null,"tradeBackgroundInfoRelatedState":null,"abstract_":"","fkCorpSource":"1f49157d-b9e7-4379-8d43-b818e2393969","corpNameApply":"天津市润福森商贸有限公司","creditTradeApplyState":null,"maturityAmount":700.00,"fkCertificate":null,"productTypeFinance":null,"fkProductFinance":null,"fkWorkflow":null,"pkCreditTradeApply":null,"dataVersion":0,"isCheckPass":true,"fkBatch":null,"pkApply":"df2908bc-35a5-4952-a52a-54ca9c2d1b8a","flag":true,"productTypeCcbscf":"CREDIT","creditTradeApplyStateEnumList":["APPROVING","OPERATOR_APPROVING","DIRECTOR_APPROVING","SINGLE_APPROVING"],"corpNameSource":null,"maturityAmountString":"700.00","abstract":"","creditTradeApplyStateString":null,"maturityDateString":"2024-09-10","applyTimeString":"2023-08-22","tradeBackgroundInfoRelatedStateName":"未知"},{"fkApproveWorkflow":null,"fkCredit":"TJSM-20230817-0009-000000","fkCorpAccept":"17cb30f5-7fd4-4b64-a9ea-39ce1493b67a","corpNameAccept":"青海华实科技投资管理有限公司","fkApplySource":"6d94f346a0c9458190f32eeb87cc5ec7","corpApplySource":"天津市润福森商贸有限公司","applyAmount":11133.00,"fkFinance":"","financeName":"","fkCorpCore":"1f49157d-b9e7-4379-8d43-b818e2393969","corpNameCore":"天津市润福森商贸有限公司","maturityDate":"2023-11-14T16:00:00.000+00:00","fkPersonApply":"847dfb3f-cd40-499a-bc5d-8fa9fb9337fa","personNameApply":"秦跃经办","applyTime":"2023-08-17T03:36:23.000+00:00","checkResult":1,"approveReason":null,"finalApproveResult":null,"finalApproveReason":null,"tradeBackgroundInfoRelatedState":null,"abstract_":"jmeter新增秦跃测试 ","fkCorpSource":"1f49157d-b9e7-4379-8d43-b818e2393969","corpNameApply":"天津市润福森商贸有限公司","creditTradeApplyState":null,"maturityAmount":11133.00,"fkCertificate":null,"productTypeFinance":null,"fkProductFinance":null,"fkWorkflow":null,"pkCreditTradeApply":null,"dataVersion":0,"isCheckPass":true,"fkBatch":null,"pkApply":"851fb8d9-cf5e-47c2-ae32-6ef136d48326","flag":true,"productTypeCcbscf":"CREDIT","creditTradeApplyStateEnumList":["APPROVING","OPERATOR_APPROVING","DIRECTOR_APPROVING","SINGLE_APPROVING"],"corpNameSource":null,"maturityAmountString":"11,133.00","abstract":"jmeter新增秦跃测试 ","creditTradeApplyStateString":null,"maturityDateString":"2023-11-15","applyTimeString":"2023-08-17","tradeBackgroundInfoRelatedStateName":"未知"},{"fkApproveWorkflow":null,"fkCredit":"TJSM-20230817-0008-000000","fkCorpAccept":"17cb30f5-7fd4-4b64-a9ea-39ce1493b67a","corpNameAccept":"青海华实科技投资管理有限公司","fkApplySource":"6d94f346a0c9458190f32eeb87cc5ec7","corpApplySource":"天津市润福森商贸有限公司","applyAmount":3158.00,"fkFinance":"","financeName":"","fkCorpCore":"1f49157d-b9e7-4379-8d43-b818e2393969","corpNameCore":"天津市润福森商贸有限公司","maturityDate":"2023-11-14T16:00:00.000+00:00","fkPersonApply":"847dfb3f-cd40-499a-bc5d-8fa9fb9337fa","personNameApply":"秦跃经办","applyTime":"2023-08-17T03:34:19.000+00:00","checkResult":1,"approveReason":null,"finalApproveResult":null,"finalApproveReason":null,"tradeBackgroundInfoRelatedState":null,"abstract_":"jmeter新增秦跃测试 ","fkCorpSource":"1f49157d-b9e7-4379-8d43-b818e2393969","corpNameApply":"天津市润福森商贸有限公司","creditTradeApplyState":null,"maturityAmount":3158.00,"fkCertificate":null,"productTypeFinance":null,"fkProductFinance":null,"fkWorkflow":null,"pkCreditTradeApply":null,"dataVersion":0,"isCheckPass":true,"fkBatch":null,"pkApply":"5249f2dc-62d0-481e-8d09-07b889a5ac9d","flag":true,"productTypeCcbscf":"CREDIT","creditTradeApplyStateEnumList":["APPROVING","OPERATOR_APPROVING","DIRECTOR_APPROVING","SINGLE_APPROVING"],"corpNameSource":null,"maturityAmountString":"3,158.00","abstract":"jmeter新增秦跃测试 ","creditTradeApplyStateString":null,"maturityDateString":"2023-11-15","applyTimeString":"2023-08-17","tradeBackgroundInfoRelatedStateName":"未知"},{"fkApproveWorkflow":null,"fkCredit":"TJSM-20230817-0007-000000","fkCorpAccept":"17cb30f5-7fd4-4b64-a9ea-39ce1493b67a","corpNameAccept":"青海华实科技投资管理有限公司","fkApplySource":"6d94f346a0c9458190f32eeb87cc5ec7","corpApplySource":"天津市润福森商贸有限公司","applyAmount":12578.00,"fkFinance":"","financeName":"","fkCorpCore":"1f49157d-b9e7-4379-8d43-b818e2393969","corpNameCore":"天津市润福森商贸有限公司","maturityDate":"2023-11-14T16:00:00.000+00:00","fkPersonApply":"847dfb3f-cd40-499a-bc5d-8fa9fb9337fa","personNameApply":"秦跃经办","applyTime":"2023-08-17T03:32:41.000+00:00","checkResult":1,"approveReason":null,"finalApproveResult":null,"finalApproveReason":null,"tradeBackgroundInfoRelatedState":null,"abstract_":"jmeter新增秦跃测试 ","fkCorpSource":"1f49157d-b9e7-4379-8d43-b818e2393969","corpNameApply":"天津市润福森商贸有限公司","creditTradeApplyState":null,"maturityAmount":12578.00,"fkCertificate":null,"productTypeFinance":null,"fkProductFinance":null,"fkWorkflow":null,"pkCreditTradeApply":null,"dataVersion":0,"isCheckPass":true,"fkBatch":null,"pkApply":"e772b30d-4e11-4152-80af-44ef3daec128","flag":true,"productTypeCcbscf":"CREDIT","creditTradeApplyStateEnumList":["APPROVING","OPERATOR_APPROVING","DIRECTOR_APPROVING","SINGLE_APPROVING"],"corpNameSource":null,"maturityAmountString":"12,578.00","abstract":"jmeter新增秦跃测试 ","creditTradeApplyStateString":null,"maturityDateString":"2023-11-15","applyTimeString":"2023-08-17","tradeBackgroundInfoRelatedStateName":"未知"},{"fkApproveWorkflow":null,"fkCredit":"TJSM-20230817-0004-000000","fkCorpAccept":"17cb30f5-7fd4-4b64-a9ea-39ce1493b67a","corpNameAccept":"青海华实科技投资管理有限公司","fkApplySource":"6d94f346a0c9458190f32eeb87cc5ec7","corpApplySource":"天津市润福森商贸有限公司","applyAmount":11725.00,"fkFinance":"","financeName":"","fkCorpCore":"1f49157d-b9e7-4379-8d43-b818e2393969","corpNameCore":"天津市润福森商贸有限公司","maturityDate":"2023-11-14T16:00:00.000+00:00","fkPersonApply":"847dfb3f-cd40-499a-bc5d-8fa9fb9337fa","personNameApply":"秦跃经办","applyTime":"2023-08-17T02:50:02.000+00:00","checkResult":1,"approveReason":null,"finalApproveResult":null,"finalApproveReason":null,"tradeBackgroundInfoRelatedState":null,"abstract_":"jmeter新增秦跃测试 ","fkCorpSource":"1f49157d-b9e7-4379-8d43-b818e2393969","corpNameApply":"天津市润福森商贸有限公司","creditTradeApplyState":null,"maturityAmount":11725.00,"fkCertificate":null,"productTypeFinance":null,"fkProductFinance":null,"fkWorkflow":null,"pkCreditTradeApply":null,"dataVersion":0,"isCheckPass":true,"fkBatch":null,"pkApply":"5a3a5000-e2e3-4d8a-856e-b3dc3725b453","flag":true,"productTypeCcbscf":"CREDIT","creditTradeApplyStateEnumList":["APPROVING","OPERATOR_APPROVING","DIRECTOR_APPROVING","SINGLE_APPROVING"],"corpNameSource":null,"maturityAmountString":"11,725.00","abstract":"jmeter新增秦跃测试 ","creditTradeApplyStateString":null,"maturityDateString":"2023-11-15","applyTimeString":"2023-08-17","tradeBackgroundInfoRelatedStateName":"未知"},{"fkApproveWorkflow":null,"fkCredit":"TJSM-20230817-0003-000000","fkCorpAccept":"17cb30f5-7fd4-4b64-a9ea-39ce1493b67a","corpNameAccept":"青海华实科技投资管理有限公司","fkApplySource":"6d94f346a0c9458190f32eeb87cc5ec7","corpApplySource":"天津市润福森商贸有限公司","applyAmount":5666.00,"fkFinance":"","financeName":"","fkCorpCore":"1f49157d-b9e7-4379-8d43-b818e2393969","corpNameCore":"天津市润福森商贸有限公司","maturityDate":"2023-11-14T16:00:00.000+00:00","fkPersonApply":"847dfb3f-cd40-499a-bc5d-8fa9fb9337fa","personNameApply":"秦跃经办","applyTime":"2023-08-17T02:36:07.000+00:00","checkResult":1,"approveReason":null,"finalApproveResult":null,"finalApproveReason":null,"tradeBackgroundInfoRelatedState":null,"abstract_":"jmeter新增秦跃测试 ","fkCorpSource":"1f49157d-b9e7-4379-8d43-b818e2393969","corpNameApply":"天津市润福森商贸有限公司","creditTradeApplyState":null,"maturityAmount":5666.00,"fkCertificate":null,"productTypeFinance":null,"fkProductFinance":null,"fkWorkflow":null,"pkCreditTradeApply":null,"dataVersion":0,"isCheckPass":true,"fkBatch":null,"pkApply":"faecb53d-38be-4e90-8962-48df5c0b8838","flag":true,"productTypeCcbscf":"CREDIT","creditTradeApplyStateEnumList":["APPROVING","OPERATOR_APPROVING","DIRECTOR_APPROVING","SINGLE_APPROVING"],"corpNameSource":null,"maturityAmountString":"5,666.00","abstract":"jmeter新增秦跃测试 ","creditTradeApplyStateString":null,"maturityDateString":"2023-11-15","applyTimeString":"2023-08-17","tradeBackgroundInfoRelatedStateName":"未知"},{"fkApproveWorkflow":null,"fkCredit":"TJSM-20230817-0002-000000","fkCorpAccept":"17cb30f5-7fd4-4b64-a9ea-39ce1493b67a","corpNameAccept":"青海华实科技投资管理有限公司","fkApplySource":"6d94f346a0c9458190f32eeb87cc5ec7","corpApplySource":"天津市润福森商贸有限公司","applyAmount":5666.00,"fkFinance":"","financeName":"","fkCorpCore":"1f49157d-b9e7-4379-8d43-b818e2393969","corpNameCore":"天津市润福森商贸有限公司","maturityDate":"2023-11-14T16:00:00.000+00:00","fkPersonApply":"847dfb3f-cd40-499a-bc5d-8fa9fb9337fa","personNameApply":"秦跃经办","applyTime":"2023-08-17T02:23:49.000+00:00","checkResult":1,"approveReason":null,"finalApproveResult":null,"finalApproveReason":null,"tradeBackgroundInfoRelatedState":null,"abstract_":"jmeter新增秦跃测试 ","fkCorpSource":"1f49157d-b9e7-4379-8d43-b818e2393969","corpNameApply":"天津市润福森商贸有限公司","creditTradeApplyState":null,"maturityAmount":5666.00,"fkCertificate":null,"productTypeFinance":null,"fkProductFinance":null,"fkWorkflow":null,"pkCreditTradeApply":null,"dataVersion":0,"isCheckPass":true,"fkBatch":null,"pkApply":"534fb7b4-f0ba-41d0-85b5-35b1f42f3c75","flag":true,"productTypeCcbscf":"CREDIT","creditTradeApplyStateEnumList":["APPROVING","OPERATOR_APPROVING","DIRECTOR_APPROVING","SINGLE_APPROVING"],"corpNameSource":null,"maturityAmountString":"5,666.00","abstract":"jmeter新增秦跃测试 ","creditTradeApplyStateString":null,"maturityDateString":"2023-11-15","applyTimeString":"2023-08-17","tradeBackgroundInfoRelatedStateName":"未知"},{"fkApproveWorkflow":null,"fkCredit":"TJSM-20230817-0001-000000","fkCorpAccept":"17cb30f5-7fd4-4b64-a9ea-39ce1493b67a","corpNameAccept":"青海华实科技投资管理有限公司","fkApplySource":"6d94f346a0c9458190f32eeb87cc5ec7","corpApplySource":"天津市润福森商贸有限公司","applyAmount":5666.00,"fkFinance":"","financeName":"","fkCorpCore":"1f49157d-b9e7-4379-8d43-b818e2393969","corpNameCore":"天津市润福森商贸有限公司","maturityDate":"2023-11-14T16:00:00.000+00:00","fkPersonApply":"847dfb3f-cd40-499a-bc5d-8fa9fb9337fa","personNameApply":"秦跃经办","applyTime":"2023-08-17T02:01:45.000+00:00","checkResult":1,"approveReason":null,"finalApproveResult":null,"finalApproveReason":null,"tradeBackgroundInfoRelatedState":null,"abstract_":"jmeter新增秦跃测试 ","fkCorpSource":"1f49157d-b9e7-4379-8d43-b818e2393969","corpNameApply":"天津市润福森商贸有限公司","creditTradeApplyState":null,"maturityAmount":5666.00,"fkCertificate":null,"productTypeFinance":null,"fkProductFinance":null,"fkWorkflow":null,"pkCreditTradeApply":null,"dataVersion":0,"isCheckPass":true,"fkBatch":null,"pkApply":"d28008aa-eb0f-4081-8671-abd4888135ba","flag":true,"productTypeCcbscf":"CREDIT","creditTradeApplyStateEnumList":["APPROVING","OPERATOR_APPROVING","DIRECTOR_APPROVING","SINGLE_APPROVING"],"corpNameSource":null,"maturityAmountString":"5,666.00","abstract":"jmeter新增秦跃测试 ","creditTradeApplyStateString":null,"maturityDateString":"2023-11-15","applyTimeString":"2023-08-17","tradeBackgroundInfoRelatedStateName":"未知"},{"fkApproveWorkflow":null,"fkCredit":"TJSM-20230816-0003-000000","fkCorpAccept":"17cb30f5-7fd4-4b64-a9ea-39ce1493b67a","corpNameAccept":"青海华实科技投资管理有限公司","fkApplySource":"6d94f346a0c9458190f32eeb87cc5ec7","corpApplySource":"天津市润福森商贸有限公司","applyAmount":5666.00,"fkFinance":null,"financeName":null,"fkCorpCore":"1f49157d-b9e7-4379-8d43-b818e2393969","corpNameCore":"天津市润福森商贸有限公司","maturityDate":"2023-11-14T16:00:00.000+00:00","fkPersonApply":"847dfb3f-cd40-499a-bc5d-8fa9fb9337fa","personNameApply":"秦跃经办","applyTime":"2023-08-16T10:56:10.000+00:00","checkResult":1,"approveReason":null,"finalApproveResult":null,"finalApproveReason":null,"tradeBackgroundInfoRelatedState":null,"abstract_":"jmeter新增秦跃测试 ","fkCorpSource":"1f49157d-b9e7-4379-8d43-b818e2393969","corpNameApply":"天津市润福森商贸有限公司","creditTradeApplyState":null,"maturityAmount":5666.00,"fkCertificate":null,"productTypeFinance":null,"fkProductFinance":null,"fkWorkflow":null,"pkCreditTradeApply":null,"dataVersion":0,"isCheckPass":true,"fkBatch":null,"pkApply":"7a06a7ab-ea1b-459e-be02-0f15b919a24d","flag":true,"productTypeCcbscf":"CREDIT","creditTradeApplyStateEnumList":["APPROVING","OPERATOR_APPROVING","DIRECTOR_APPROVING","SINGLE_APPROVING"],"corpNameSource":null,"maturityAmountString":"5,666.00","abstract":"jmeter新增秦跃测试 ","creditTradeApplyStateString":null,"maturityDateString":"2023-11-15","applyTimeString":"2023-08-16","tradeBackgroundInfoRelatedStateName":"未知"}],"pageCond":{"page":1,"pageSize":10,"totalPages":7,"count":70,"needCount":true,"orders":[]},"subTotal":[],"grandTotal":[],"sumPage":null,"sumTotal":0,"loanAmountPage":null,"loanAmountTotal":null,"loanClearAmountPage":null,"loanClearAmountTotal":null,"unCheckNum":0,"invoiceAmountTotal":null,"sumUnRedeemTotal":null}}
2024-02-27 13:48:31 [client.py:44] [INFO] 通过$.data.datalist[0].pkApply提取到的结果是:e056df3b-96e0-49c8-beba-e220aa4f97af
2024-02-27 13:48:31 [client.py:44] [INFO] 通过$.code提取到的结果是:0
2024-02-27 13:48:31 [client.py:15] [INFO] 接口地址是:http://58.218.196.216:11080/api/web/corp/v1/xugong/credits/issue/e056df3b-96e0-49c8-beba-e220aa4f97af/commit
2024-02-27 13:48:31 [client.py:16] [INFO] 接口请求方式是:post
2024-02-27 13:48:31 [client.py:18] [INFO] 接口的verify是:False
2024-02-27 13:48:31 [client.py:18] [INFO] 接口的headers是:{'X-Auth-Token': '755ce501-3a13-4da7-bfa6-e4b76ff17f47', 'X-CSRF-TOKEN': '782bbfb0-5a3f-4d8e-b57f-21cbb2959221', 'Content-Type': 'application/json;charset=UTF-8', 'X-SCF-SIGN': '4b24df686a1ab0ab28114335448279f6', 'X-SCF-TV': '1709012911242', 'X-SCF-NONCE': '35c3b9f5-855f-4dae-8fdc-55b811f8bd17'}
2024-02-27 13:48:31 [client.py:18] [INFO] 接口的json是:{'softCaSignature': {'creditList': ['None'], 'smsVerifyCode': ''}}
2024-02-27 13:48:32 [client.py:21] [INFO] 接口响应状态码是:200
2024-02-27 13:48:32 [client.py:22] [INFO] 接口响应信息是:{"code":"0","message":"成功","data":null}
2024-02-27 13:48:32 [client.py:44] [INFO] 通过$.code提取到的结果是:0